\contentsline {chapter}{Contents}{1}
\contentsline {chapter}{\chapternumberline {1}Answers to exercises.}{3}
\contentsline {section}{\numberline {1.1}Exercise I.}{3}
\contentsline {section}{\numberline {1.2}Exercise II.}{3}
\contentsline {section}{\numberline {1.3}Exercise III.}{4}
\contentsline {section}{\numberline {1.4}Exercise IV.}{4}
\contentsline {section}{\numberline {1.5}Exercise V.}{5}
