\contentsline {chapter}{Contents}{1}
\contentsline {chapter}{\chapternumberline {1}Delectus}{3}
\contentsline {section}{\numberline {1.1}Agreement of the Adjective with its Noun.}{4}
\contentsline {section}{\numberline {1.2}Agreement of the Adjective with its Noun---continued.}{5}
\contentsline {section}{\numberline {1.3}Comparison of Adjectives.}{6}
\contentsline {section}{\numberline {1.4}Numerals.}{7}
\contentsline {section}{\numberline {1.5}Exercise V.}{7}
\contentsline {section}{\numberline {1.6}The Genitive Case.}{9}
\contentsline {section}{\numberline {1.7}The Verb Sum.}{9}
